<?xml version="1.0" encoding="utf-8"?>
<!-- Generator: Adobe Illustrator 19.0.0, SVG Export Plug-In . SVG Version: 6.00 Build 0)  -->
<svg version="1.1" id="Layer_1" xmlns="http://www.w3.org/2000/svg" xmlns:xlink="http://www.w3.org/1999/xlink" x="0px" y="0px"
	 viewBox="0 0 360 360" style="enable-background:new 0 0 360 360;" xml:space="preserve">
<style type="text/css">
	.st0{fill:url(#XMLID_3_);}
	.st1{fill:url(#XMLID_6_);}
	.st2{opacity:0.2;fill:#FFFFFF;}
</style>
<g id="XMLID_1_">
	<radialGradient id="XMLID_3_" cx="182.0243" cy="182.8016" r="126" gradientUnits="userSpaceOnUse">
		<stop  offset="0" style="stop-color:#27AAE1"/>
		<stop  offset="0.1712" style="stop-color:#25A6DD"/>
		<stop  offset="0.3401" style="stop-color:#1E9BD4"/>
		<stop  offset="0.5081" style="stop-color:#118BC6"/>
		<stop  offset="0.6756" style="stop-color:#0076B3"/>
		<stop  offset="0.8412" style="stop-color:#005F9E"/>
		<stop  offset="1" style="stop-color:#004689"/>
	</radialGradient>
	<path id="XMLID_18_" class="st0" d="M272,308.8H92c-19.8,0-36-16.2-36-36v-180c0-19.8,16.2-36,36-36h180c19.8,0,36,16.2,36,36v180
		C308,292.6,291.8,308.8,272,308.8z"/>
</g>
<g id="XMLID_5_">
	<linearGradient id="XMLID_6_" gradientUnits="userSpaceOnUse" x1="52.5243" y1="182.8016" x2="311.5243" y2="182.8016">
		<stop  offset="0" style="stop-color:#888A8C"/>
		<stop  offset="0.1582" style="stop-color:#8D8F92"/>
		<stop  offset="0.3879" style="stop-color:#9C9EA0"/>
		<stop  offset="0.661" style="stop-color:#B5B7B9"/>
		<stop  offset="0.9654" style="stop-color:#D9DBDC"/>
		<stop  offset="1" style="stop-color:#DEDFE0"/>
		<stop  offset="1" style="stop-color:#F7F7F7"/>
	</linearGradient>
	<path id="XMLID_7_" class="st1" d="M272,312.3H92c-21.8,0-39.5-17.7-39.5-39.5v-180C52.5,71,70.2,53.3,92,53.3h180
		c21.8,0,39.5,17.7,39.5,39.5v180C311.5,294.6,293.8,312.3,272,312.3z M92,60.3c-17.9,0-32.5,14.6-32.5,32.5v180
		c0,17.9,14.6,32.5,32.5,32.5h180c17.9,0,32.5-14.6,32.5-32.5v-180c0-17.9-14.6-32.5-32.5-32.5H92z"/>
</g>
<path id="XMLID_4_" class="st2" d="M269.5,60.3h-175c-19.2,0-35,16-35,35.5v75c26.1,25,72.1,41.6,124.5,41.6
	c49.8,0,93.9-15,120.5-38V95.8C304.5,76.3,288.8,60.3,269.5,60.3z"/>
</svg>
